[
    {
        "facility": "Hongkong CURA Healthcare Center",
        "healthcare_program": "Medicare",
        "visit_date": "26/06/2024",
        "comment": "No Comment"
    },
    {
        "facility": "Seoul CURA Healthcare Center",
        "healthcare_program": "Medicaid",
        "visit_date": "",
        "comment": "No Comment"
    }
]